"slide02-title","Du entscheidest, wo du spielst"
"textlabel-firstname","Vorname"
"textlabel-termsandconditions","Fortfahren gilt als Zustimmung zu den"
"notification-emailsyntax","Falsches E-Mail-Adressenformat."
"textlabel-description-logout","Wenn du dich abmeldest, beginnst du mit Level 1."
"textlabel-or","ODER"
"link-changepassword","Passwort ändern"
"slide03-description","Erhalte mit deinem King-Konto Geschenke und sende und erhalte Leben."
"notification-passwordsdonotmatch","Passw. stimmen nicht überein"
"notification-emailNotassociated","E-Mail nicht mit einem King-Konto verknüpft."
"title-changepassword","Neues Passwort erstellen"
"button-Facebook","FACEBOOK"
"button-login","ANMELDEN"
"button-submit","SENDEN"
"textlabel-description-accountcreated","Dein Spiel wird gespeichert, um auf allen Geräten weiterzuspielen."
"button-logout","ABMELDEN"
"title-forgotpassword","Passwort vergessen?"
"slide01-title","Speichere deinen Fortschritt"
"title-accountsettings","Kontoeinstellungen"
"notification-passwordlength","Passwort muss mindestens 4 Zeichen enthalten"
"textlabel-password","Passwort"
"textlabel-description-enterpassword","Gib das aktuelle King-Kontopasswort ein."
"textlabel-lastname","Nachname"
"notification-checktheseandtryagain","Prüfen und erneut versuchen"
"link-donthaveanaccountregister","NOCH KEIN KING-KONTO? REGISTRIEREN »"
"notification-requiredfield","Eingabe erforderlich"
"button-registerwithfacebook","MIT FACEBOOK REGISTRIEREN"
"textlabel-connecttofacebook","Verbinde dich mit Facebook, sende und erhalte Leben von Freunden und schalte Levels frei!"
"button-savechanges","ÄNDERUNGEN SPEICHERN"
"title-logintoyourkingaccount","Bei King-Konto anmelden"
"notification-externalnetworkerror","Verbindungsfehler. Versuche es in Kürze erneut."
"button-maybelater","SPÄTER"
"textlabel-alreadyhaveanaccount","Du hast schon ein King-Konto?"
"button-registerewithmail","MIT E-MAIL REGISTRIEREN"
"textlabel-description-forgotpassword","Gib deine E-Mail-Adresse ein, um dein Passwort zurückzusetzen."
"link-alreadyhaveaccountlogin","DU HAST SCHON EIN KONTO? ANMELDEN »"
"notification-invalidKingaccount","Dies ist kein King-Konto."
"button-changepassword","PASSWORT ÄNDERN"
"button-resetpassword","PASSWORT RÜCKSETZEN"
"notification-wrongemailandpassword","E-Mail/Passwort-Kombination ist falsch."
"textlabel-description-changepassword","Gib mindestens 4 Zeichen ein."
"textlabel-email","E-Mail"
"textlabel-description-accountsettingskingdom","Spiel wird gespeichert. Hier kannst du deine Daten und dein Passwort aktualisieren."
"button-connecttofacebook","MIT FACEBOOK VERB."
"textlabel-logoutsubtitle","Dein Fortschritt wird gespeichert."
"button-edit","BEARBEITEN"
"title-welcome","Willkommen, {0}!"
"title-logout","Wirklich abmelden?"
"notification-wrongpassword","Falsches Passwort. Versuche es erneut."
"button-createmyaccount","KONTO ERSTELLEN"
"notification-existingEmail","E-Mail-Adresse bereits registriert."
"notification-networkerror","Verbindungsfehler. Versuche es in Kürze erneut."
"link-termsandconditions","Geschäftsbedingungen"
"button-createaccount","KING-KONTO ERSTELLEN"
"link-logout","Abmelden"
"title-securitycheck","Sicherheitsprüfung"
"slide01-description","Speichere dein Spiel und setze es jederzeit fort."
"title-createakingaccount","Erstelle dein King-Konto!"
"notification-resetpassword","Du hast eine E-Mail zum Zurücksetzen erhalten."
"slide02-description","Spiele mit deinem King-Konto überall und auf jedem Gerät."
"button-Google","GOOGLE"
"textlabel-description-accountsettingsexternal","Dein Konto ist mit {0} verknüpft. Dein Spiel wird gespeichert."
"textlabel-newpassword","Neues Passwort"
"title-editaccountsettings","Kontoeinstellungen bearbeiten"
"slide03-title","Nutze deine Spiele besser"
"link-forgotyourpassword","PASSWORT VERGESSEN?"
"textlabel-retypepassword","Neues Passwort eing."
"notification-invalidpasswordformat","Falsches Passwortformat."
"button-registerwithgoogle","MIT GOOGLE REGISTRIEREN"
"notification-somethingwentwrong","Ein Fehler ist aufgetreten. Versuche es später erneut."
"textlabel-tryagainwithanotheremail","Versuche es mit einer anderen E-Mail-Adresse oder"
"notification-nointernetconnection","Offline. Verbinde dich und versuche es erneut."
"title-permissioncenter","Datenschutz und Sicherheit"
"textlabel-permissioncenter","Passe deine Erfahrung über alle King-Spiele hinweg an."
"title-permission-personalizedads","Personalisierte Werbung"
"textlabel-permission-personalizedads","King und seine dritten Werbepartner können meine Daten verwenden, um für mich relevantere Werbung in King-Spielen einzublenden."
"textlabel-marketing-optin","Aktiviere dieses Kästchen, um E-Mails zu neuen Spielen und Angeboten von King zu erhalten."
"title-permission-marketingmail","E-Mails von King erhalten"
"textlabel-permission-marketingmail","Ich erhalte E-Mails zu neuen Spielen und Angeboten."
"link-privacypolicy","Datenschutzrichtlinie"
"link-termsandconditions-signup","Geschäftsbedingungen"
"title-rtbf","Recht auf Datenlöschung"
"textlabel-rtbf-1","Dein Konto wurde wie angefordert gelöscht."
"textlabel-rtbf-2","Um den Vorgang abzuschließen, deinstalliere bitte dieses Spiel und alle anderen King-Spiele von deinem Gerät."
"textlabel-rtbf-3","Falls du Fragen hast, wende dich bitte an unseren Kundenservice unter queries@support.king.com."
"button-rtbf-close","SPIEL SCHLIESSEN"
"button-loginwithemail","MIT E-MAIL ANMELDEN"
"button-continuewithapple","MIT APPLE REGISTRIEREN"
"button-signinwithapple","MIT APPLE ANMELDEN"
"button-apple","APPLE"
"button-facebook-nocaps","Facebook"
"button-google-nocaps","Google"
"button-continuewithapple-nocaps","Mit Apple registrieren"
"button-continuewithfb-nocaps","Mit Facebook registrieren"
"button-continuewithgoogle-nocaps","Mit Google registrieren"
"textlabel-description-accountcreated-siwa","Dein Spiel wird jetzt auf deinen Geräten mit der aktuellen iOS-Version gespeichert."
"textlabel-description-accountsetting-siwa","Dein Spiel wird jetzt auf Geräten mit der aktuellen iOS-Version bei Apple gespeichert."
"textlabel-bottom-description-logout","Du kannst dich jederzeit wieder {0} anmelden und da weiterspielen, wo du aufgehört hast."
"text-withmail","mit deiner E-Mail-Adresse"
"text-withapple","mit Apple"
"text-withfacebook","mit Facebook"
"text-withgoogle","mit Google"
