"retry.button","UUDELLEEN"
"retry.message","Virhe yhdistettäessä palvelimeen. Yritä uudelleen."
"retry.no.internet","Ohjekeskuksen lataaminen ei onnistu. Muodosta internet-yhteys."
"retry.no.article","Ei näytettäviä artikkeleita"
"retry.oops","Hups!"
"retry.no.internet.no.connection","Yhteydessä on jotain vikaa."
"retry.no.internet.retry","Yritä yhdistää uudelleen."
"retry.button.text","UUDELLEEN"
"loadingscreen.accessing","Haetaan..."